{
    "model_name": "dmis-lab/biobert-base-cased-v1.2",
    "dataset_path": "data/primary",
    "max_seq_length": 512,
    "batch_size": 16,
    "learning_rate": 1e-05,
    "warmup_ratio": 0.1,
    "num_train_epochs": 10,
    "seed": 45,
    "patience": 20,
    "train_out_dir": "out/train",
    "test_out_dir": "out/test"
}