{
    "model_name": "path/to/model",
    "dataset_path" : "./data/outcome-sim/",
    "batch_size": 32,
    "epochs": 5,
    "warmup_ratio": 0.1,
    "evaluation_steps_ratio":0.1,
    "learning_rate": 5e-05,
    "num_train_epochs": 10,
    "seed": 42,
    "patience": 10,
    "train_out_dir": "out/train",
    "test_out_dir": "out/test"
}